\relax 
\providecommand\hyper@newdestlabel[2]{}
\providecommand\HyperFirstAtBeginDocument{\AtBeginDocument}
\HyperFirstAtBeginDocument{\ifx\hyper@anchor\@undefined
\global\let\oldcontentsline\contentsline
\gdef\contentsline#1#2#3#4{\oldcontentsline{#1}{#2}{#3}}
\global\let\oldnewlabel\newlabel
\gdef\newlabel#1#2{\newlabelxx{#1}#2}
\gdef\newlabelxx#1#2#3#4#5#6{\oldnewlabel{#1}{{#2}{#3}}}
\AtEndDocument{\ifx\hyper@anchor\@undefined
\let\contentsline\oldcontentsline
\let\newlabel\oldnewlabel
\fi}
\fi}
\global\let\hyper@last\relax 
\gdef\HyperFirstAtBeginDocument#1{#1}
\providecommand\HyField@AuxAddToFields[1]{}
\providecommand\HyField@AuxAddToCoFields[2]{}
\@writefile{toc}{\contentsline {section}{\numberline {1}License}{1}{section.1}}
\@writefile{toc}{\contentsline {section}{\numberline {2}Workflow Overview}{1}{section.2}}
\@writefile{toc}{\contentsline {section}{\numberline {3} Mirrors}{2}{section.3}}
\@writefile{toc}{\contentsline {section}{\numberline {4}Coordinate system}{2}{section.4}}
\@writefile{toc}{\contentsline {section}{\numberline {5}Panels}{2}{section.5}}
\@writefile{toc}{\contentsline {subsection}{\numberline {5.1}Transmission Physics}{3}{subsection.5.1}}
\citation{hemming2008}
\citation{tantau2012}
\@writefile{lot}{\contentsline {table}{\numberline {1}{\ignorespaces Calculated transmission with experimental results from Hemming 2008. $2T$ is for a double film layer. }}{4}{table.1}}
\newlabel{tab:my-table}{{1}{4}{Calculated transmission with experimental results from Hemming 2008. $2T$ is for a double film layer}{table.1}{}}
\@writefile{toc}{\contentsline {section}{\numberline {6}Greenhouse}{4}{section.6}}
\bibstyle{plain}
\bibdata{testRefs}
\bibcite{hemming2008}{1}
\bibcite{tantau2012}{2}
\@writefile{toc}{\contentsline {section}{\numberline {7}Solvers}{5}{section.7}}
\@writefile{toc}{\contentsline {section}{\numberline {8} Weather data sets}{5}{section.8}}
